Monkey 0
  Starting items: 54, 89, 94
  Operation: new = old * 7
  Test: divisible by 17
    If true: throw to monkey 5
    If false: throw to monkey 3

Monkey 1
  Starting items: 66, 71
  Operation: new = old + 4
  Test: divisible by 3
    If true: throw to monkey 0
    If false: throw to monkey 3

Monkey 2
  Starting items: 76, 55, 80, 55, 55, 96, 78
  Operation: new = old + 2
  Test: divisible by 5
    If true: throw to monkey 7
    If false: throw to monkey 4

Monkey 3
  Starting items: 93, 69, 76, 66, 89, 54, 59, 94
  Operation: new = old + 7
  Test: divisible by 7
    If true: throw to monkey 5
    If false: throw to monkey 2

Monkey 4
  Starting items: 80, 54, 58, 75, 99
  Operation: new = old * 17
  Test: divisible by 11
    If true: throw to monkey 1
    If false: throw to monkey 6

Monkey 5
  Starting items: 69, 70, 85, 83
  Operation: new = old + 8
  Test: divisible by 19
    If true: throw to monkey 2
    If false: throw to monkey 7

Monkey 6
  Starting items: 89
  Operation: new = old + 6
  Test: divisible by 2
    If true: throw to monkey 0
    If false: throw to monkey 1

Monkey 7
  Starting items: 62, 80, 58, 57, 93, 56
  Operation: new = old * old
  Test: divisible by 13
    If true: throw to monkey 6
    If false: throw to monkey 4
